LazoAbierto/Registros/senalErrorPico.csv

Record Length,2.500000e+03,,   0.000000000000,   1.08200,
Sample Interval,1.000000e-02,,   0.010000000000,   1.12000,
Trigger Point,0.000000000000e+00,,   0.020000000000,   1.13400,
,,,   0.030000000000,   1.08400,
,,,   0.040000000000,   1.08200,
,,,   0.050000000000,   1.08000,
Source,CH3,,   0.060000000000,   1.13000,
Vertical Units,V,,   0.070000000000,   1.11200,
Vertical Scale,5.000000e-02,,   0.080000000000,   1.09600,
Vertical Offset,-1.140000e+00,,   0.090000000000,   1.08600,
Horizontal Units,s,,   0.100000000000,   1.12000,
Horizontal Scale,2.500000e+00,,   0.110000000000,   1.12600,
Pt Fmt,Y,,   0.120000000000,   1.09600,
Yzero,0.000000e+00,,   0.130000000000,   1.07600,
Probe Atten,1.000000e+00,,   0.140000000000,   1.07800,
Model Number,TBS1064,,   0.150000000000,   1.08600,
Serial Number,C020886,,   0.160000000000,   1.12400,
Firmware Version,FV:v26.05,,   0.170000000000,   1.11000,
,,,0.180000000000,   1.07400,
,,,0.190000000000,   1.08200,
,,,0.200000000000,   1.07400,
,,,0.210000000000,   1.17000,
,,,0.220000000000,   1.10600,
,,,0.230000000000,   1.08200,
,,,0.240000000000,   0.88400,
,,,0.250000000000,   0.88400,
,,,0.260000000000,   0.88400,
,,,0.270000000000,   0.88400,
,,,0.280000000000,   0.88400,
,,,0.290000000000,   0.88400,
,,,0.300000000000,   0.88400,
,,,0.310000000000,   0.88400,
,,,0.320000000000,   0.88400,
,,,0.330000000000,   0.88400,
,,,0.340000000000,   0.88400,
,,,0.350000000000,   0.88400,
,,,0.360000000000,   0.88400,
,,,0.370000000000,   0.88400,
,,,0.380000000000,   0.88400,
,,,0.390000000000,   0.88400,
,,,0.400000000000,   0.88400,
,,,0.410000000000,   0.88400,
,,,0.420000000000,   0.88400,
,,,0.430000000000,   0.88400,
,,,0.440000000000,   0.88400,
,,,0.450000000000,   0.88400,
,,,0.460000000000,   0.88400,
,,,0.470000000000,   0.88400,
,,,0.480000000000,   0.88400,
,,,0.490000000000,   0.88400,
,,,0.500000000000,   0.88400,
,,,0.510000000000,   0.88400,
,,,0.520000000000,   0.88400,
,,,0.530000000000,   0.88400,
,,,0.540000000000,   0.88400,
,,,0.550000000000,   0.88400,
,,,0.560000000000,   0.88400,
,,,0.570000000000,   0.88400,
,,,0.580000000000,   0.88400,
,,,0.590000000000,   0.88400,
,,,0.600000000000,   0.88400,
,,,0.610000000000,   0.88400,
,,,0.620000000000,   0.88400,
,,,0.630000000000,   0.88400,
,,,0.640000000000,   0.88400,
,,,0.650000000000,   0.88400,
,,,0.660000000000,   0.88400,
,,,0.670000000000,   0.88400,
,,,0.680000000000,   0.88400,
,,,0.690000000000,   0.88400,
,,,0.700000000000,   0.88400,
,,,0.710000000000,   0.88400,
,,,0.720000000000,   0.88400,
,,,0.730000000000,   0.88400,
,,,0.740000000000,   0.88400,
,,,0.750000000000,   0.88400,
,,,0.760000000000,   0.88400,
,,,0.770000000000,   0.88400,
,,,0.780000000000,   0.88400,
,,,0.790000000000,   0.88400,
,,,0.800000000000,   0.88400,
,,,0.810000000000,   0.88400,
,,,0.820000000000,   0.88400,
,,,0.830000000000,   0.88400,
,,,0.840000000000,   0.88400,
,,,0.850000000000,   0.88400,
,,,0.860000000000,   0.88400,
,,,0.870000000000,   0.88400,
,,,0.880000000000,   0.88400,
,,,0.890000000000,   0.88400,
,,,0.900000000000,   0.88400,
,,,0.910000000000,   0.88400,
,,,0.920000000000,   0.88400,
,,,0.930000000000,   0.88400,
,,,0.940000000000,   0.88400,
,,,0.950000000000,   0.88400,
,,,0.960000000000,   0.88400,
,,,0.970000000000,   0.88400,
,,,0.980000000000,   0.88400,
,,,0.990000000000,   0.88400,
,,,1.000000000000,   0.88400,
,,,1.010000000000,   0.88400,
,,,1.020000000000,   0.88400,
,,,1.030000000000,   0.88400,
,,,1.040000000000,   0.88400,
,,,1.050000000000,   0.88400,
,,,1.060000000000,   0.88400,
,,,1.070000000000,   0.88400,
,,,1.080000000000,   0.88400,
,,,1.090000000000,   0.88400,
,,,1.100000000000,   0.88400,
,,,1.110000000000,   0.88400,
,,,1.120000000000,   0.88400,
,,,1.130000000000,   0.88400,
,,,1.140000000000,   0.88400,
,,,1.150000000000,   0.88400,
,,,1.160000000000,   0.88400,
,,,1.170000000000,   0.88400,
,,,1.180000000000,   0.88400,
,,,1.190000000000,   0.88400,
,,,1.200000000000,   0.88400,
,,,1.210000000000,   0.88400,
,,,1.220000000000,   0.88400,
,,,1.230000000000,   0.88400,
,,,1.240000000000,   0.88400,
,,,1.250000000000,   0.88400,
,,,1.260000000000,   0.88400,
,,,1.270000000000,   0.88400,
,,,1.280000000000,   0.88400,
,,,1.290000000000,   0.88400,
,,,1.300000000000,   0.88400,
,,,1.310000000000,   0.88400,
,,,1.320000000000,   0.88400,
,,,1.330000000000,   0.88400,
,,,1.340000000000,   0.88400,
,,,1.350000000000,   0.88400,
,,,1.360000000000,   0.88400,
,,,1.370000000000,   0.88400,
,,,1.380000000000,   0.88400,
,,,1.390000000000,   0.88400,
,,,1.400000000000,   0.88400,
,,,1.410000000000,   0.88400,
,,,1.420000000000,   0.88400,
,,,1.430000000000,   0.88400,
,,,1.440000000000,   0.88400,
,,,1.450000000000,   0.88400,
,,,1.460000000000,   0.88400,
,,,1.470000000000,   0.88400,
,,,1.480000000000,   0.88400,
,,,1.490000000000,   0.88400,
,,,1.500000000000,   0.88400,
,,,1.510000000000,   0.88400,
,,,1.520000000000,   0.88400,
,,,1.530000000000,   0.88400,
,,,1.540000000000,   0.88400,
,,,1.550000000000,   0.88400,
,,,1.560000000000,   0.88400,
,,,1.570000000000,   0.88400,
,,,1.580000000000,   0.88400,
,,,1.590000000000,   0.88400,
,,,1.600000000000,   0.88400,
,,,1.610000000000,   0.88400,
,,,1.620000000000,   0.88400,
,,,1.630000000000,   0.88400,
,,,1.640000000000,   0.88400,
,,,1.650000000000,   0.88400,
,,,1.660000000000,   0.88400,
,,,1.670000000000,   0.88400,
,,,1.680000000000,   0.88400,
,,,1.690000000000,   0.88400,
,,,1.700000000000,   0.88400,
,,,1.710000000000,   0.88400,
,,,1.720000000000,   0.88400,
,,,1.730000000000,   0.88400,
,,,1.740000000000,   0.88400,
,,,1.750000000000,   0.88400,
,,,1.760000000000,   0.88400,
,,,1.770000000000,   0.88400,
,,,1.780000000000,   0.88400,
,,,1.790000000000,   0.88400,
,,,1.800000000000,   0.88400,
,,,1.810000000000,   0.88400,
,,,1.820000000000,   0.88400,
,,,1.830000000000,   0.88400,
,,,1.840000000000,   0.88400,
,,,1.850000000000,   0.88400,
,,,1.860000000000,   0.88400,
,,,1.870000000000,   0.88400,
,,,1.880000000000,   0.88400,
,,,1.890000000000,   0.88400,
,,,1.900000000000,   0.88400,
,,,1.910000000000,   0.88400,
,,,1.920000000000,   0.88400,
,,,1.930000000000,   0.88400,
,,,1.940000000000,   0.88400,
,,,1.950000000000,   0.88400,
,,,1.960000000000,   0.88400,
,,,1.970000000000,   0.88400,
,,,1.980000000000,   0.88400,
,,,1.990000000000,   0.88400,
,,,2.000000000000,   0.88400,
,,,2.010000000000,   0.88400,
,,,2.020000000000,   0.88400,
,,,2.030000000000,   0.88400,
,,,2.040000000000,   0.88400,
,,,2.050000000000,   0.88400,
,,,2.060000000000,   0.88400,
,,,2.070000000000,   0.88400,
,,,2.080000000000,   0.88400,
,,,2.090000000000,   0.88400,
,,,2.100000000000,   0.88400,
,,,2.110000000000,   0.88400,
,,,2.120000000000,   0.88400,
,,,2.130000000000,   0.88400,
,,,2.140000000000,   0.88400,
,,,2.150000000000,   0.88400,
,,,2.160000000000,   0.88400,
,,,2.170000000000,   0.88400,
,,,2.180000000000,   0.88400,
,,,2.190000000000,   0.88400,
,,,2.200000000000,   0.88400,
,,,2.210000000000,   0.88400,
,,,2.220000000000,   0.88400,
,,,2.230000000000,   0.88400,
,,,2.240000000000,   0.88400,
,,,2.250000000000,   0.88400,
,,,2.260000000000,   0.88400,
,,,2.270000000000,   0.88400,
,,,2.280000000000,   0.88400,
,,,2.290000000000,   0.88400,
,,,2.300000000000,   0.88400,
,,,2.310000000000,   0.88400,
,,,2.320000000000,   0.88400,
,,,2.330000000000,   0.88400,
,,,2.340000000000,   0.88400,
,,,2.350000000000,   0.88400,
,,,2.360000000000,   0.88400,
,,,2.370000000000,   0.88400,
,,,2.380000000000,   0.88400,
,,,2.390000000000,   0.88400,
,,,2.400000000000,   0.88400,
,,,2.410000000000,   0.88400,
,,,2.420000000000,   0.88400,
,,,2.430000000000,   0.88400,
,,,2.440000000000,   0.88400,
,,,2.450000000000,   0.88400,
,,,2.460000000000,   0.88400,
,,,2.470000000000,   0.88400,
,,,2.480000000000,   0.88400,
,,,2.490000000000,   0.88400,
,,,2.500000000000,   0.88400,
,,,2.510000000000,   0.88400,
,,,2.520000000000,   0.88400,
,,,2.530000000000,   0.88400,
,,,2.540000000000,   0.88400,
,,,2.550000000000,   0.88400,
,,,2.560000000000,   0.88400,
,,,2.570000000000,   0.88400,
,,,2.580000000000,   0.88400,
,,,2.590000000000,   0.88400,
,,,2.600000000000,   0.88400,
,,,2.610000000000,   0.88400,
,,,2.620000000000,   0.88400,
,,,2.630000000000,   0.88400,
,,,2.640000000000,   0.88400,
,,,2.650000000000,   0.88400,
,,,2.660000000000,   0.88400,
,,,2.670000000000,   0.88400,
,,,2.680000000000,   0.88400,
,,,2.690000000000,   0.88400,
,,,2.700000000000,   0.88400,
,,,2.710000000000,   0.88400,
,,,2.720000000000,   0.88400,
,,,2.730000000000,   0.88400,
,,,2.740000000000,   1.04600,
,,,2.750000000000,   1.10200,
,,,2.760000000000,   1.05600,
,,,2.770000000000,   1.04200,
,,,2.780000000000,   1.08000,
,,,2.790000000000,   1.17800,
,,,2.800000000000,   1.20800,
,,,2.810000000000,   1.13600,
,,,2.820000000000,   1.09000,
,,,2.830000000000,   1.20600,
,,,2.840000000000,   1.17400,
,,,2.850000000000,   1.19800,
,,,2.860000000000,   1.10800,
,,,2.870000000000,   1.14000,
,,,2.880000000000,   1.20400,
,,,2.890000000000,   1.17400,
,,,2.900000000000,   1.18600,
,,,2.910000000000,   1.09000,
,,,2.920000000000,   1.13600,
,,,2.930000000000,   1.21000,
,,,2.940000000000,   1.08200,
,,,2.950000000000,   1.19200,
,,,2.960000000000,   1.04400,
,,,2.970000000000,   1.06000,
,,,2.980000000000,   1.09000,
,,,2.990000000000,   1.06800,
,,,3.000000000000,   1.10400,
,,,3.010000000000,   1.04400,
,,,3.020000000000,   1.06000,
,,,3.030000000000,   1.07400,
,,,3.040000000000,   1.04200,
,,,3.050000000000,   1.10200,
,,,3.060000000000,   1.04000,
,,,3.070000000000,   1.05600,
,,,3.080000000000,   1.08800,
,,,3.090000000000,   1.06000,
,,,3.100000000000,   1.08800,
,,,3.110000000000,   1.02600,
,,,3.120000000000,   1.05000,
,,,3.130000000000,   1.08200,
,,,3.140000000000,   1.05200,
,,,3.150000000000,   1.08200,
,,,3.160000000000,   1.03200,
,,,3.170000000000,   1.06400,
,,,3.180000000000,   1.09600,
,,,3.190000000000,   1.04600,
,,,3.200000000000,   1.12200,
,,,3.210000000000,   1.05200,
,,,3.220000000000,   1.05800,
,,,3.230000000000,   1.10000,
,,,3.240000000000,   1.08200,
,,,3.250000000000,   1.09800,
,,,3.260000000000,   1.04200,
,,,3.270000000000,   1.06000,
,,,3.280000000000,   1.08600,
,,,3.290000000000,   1.08000,
,,,3.300000000000,   1.10000,
,,,3.310000000000,   1.04200,
,,,3.320000000000,   1.06000,
,,,3.330000000000,   1.08800,
,,,3.340000000000,   1.07800,
,,,3.350000000000,   1.11000,
,,,3.360000000000,   1.03400,
,,,3.370000000000,   1.03800,
,,,3.380000000000,   1.07400,
,,,3.390000000000,   1.05600,
,,,3.400000000000,   1.08400,
,,,3.410000000000,   1.03400,
,,,3.420000000000,   1.05800,
,,,3.430000000000,   1.19400,
,,,3.440000000000,   1.18000,
,,,3.450000000000,   1.19800,
,,,3.460000000000,   1.11200,
,,,3.470000000000,   1.12400,
,,,3.480000000000,   1.16800,
,,,3.490000000000,   1.16200,
,,,3.500000000000,   1.12800,
,,,3.510000000000,   1.05200,
,,,3.520000000000,   1.06600,
,,,3.530000000000,   1.07200,
,,,3.540000000000,   1.05200,
,,,3.550000000000,   1.07200,
,,,3.560000000000,   1.03600,
,,,3.570000000000,   1.05400,
,,,3.580000000000,   1.06200,
,,,3.590000000000,   1.06600,
,,,3.600000000000,   1.10200,
,,,3.610000000000,   1.03600,
,,,3.620000000000,   1.06400,
,,,3.630000000000,   1.06800,
,,,3.640000000000,   1.18000,
,,,3.650000000000,   1.16200,
,,,3.660000000000,   1.04000,
,,,3.670000000000,   1.12600,
,,,3.680000000000,   1.17400,
,,,3.690000000000,   1.17400,
,,,3.700000000000,   1.19800,
,,,3.710000000000,   1.11000,
,,,3.720000000000,   1.06200,
,,,3.730000000000,   1.08000,
,,,3.740000000000,   1.04800,
,,,3.750000000000,   1.08600,
,,,3.760000000000,   1.02800,
,,,3.770000000000,   1.06800,
,,,3.780000000000,   1.06400,
,,,3.790000000000,   1.05200,
,,,3.800000000000,   1.08400,
,,,3.810000000000,   1.10200,
,,,3.820000000000,   1.05400,
,,,3.830000000000,   1.08000,
,,,3.840000000000,   1.05000,
,,,3.850000000000,   1.09400,
,,,3.860000000000,   1.04600,
,,,3.870000000000,   1.08800,
,,,3.880000000000,   1.08000,
,,,3.890000000000,   1.04200,
,,,3.900000000000,   1.05800,
,,,3.910000000000,   1.04200,
,,,3.920000000000,   1.04200,
,,,3.930000000000,   1.07400,
,,,3.940000000000,   1.03800,
,,,3.950000000000,   1.06400,
,,,3.960000000000,   1.03200,
,,,3.970000000000,   1.04200,
,,,3.980000000000,   1.04800,
,,,3.990000000000,   1.05200,
,,,4.000000000000,   1.07200,
,,,4.010000000000,   1.04400,
,,,4.020000000000,   1.03800,
,,,4.030000000000,   1.04400,
,,,4.040000000000,   1.03800,
,,,4.050000000000,   1.05000,
,,,4.060000000000,   1.03200,
,,,4.070000000000,   1.04000,
,,,4.080000000000,   1.05000,
,,,4.090000000000,   1.03400,
,,,4.100000000000,   1.05800,
,,,4.110000000000,   1.03400,
,,,4.120000000000,   1.08000,
,,,4.130000000000,   1.06800,
,,,4.140000000000,   1.04200,
,,,4.150000000000,   1.04800,
,,,4.160000000000,   1.03200,
,,,4.170000000000,   1.04600,
,,,4.180000000000,   1.03600,
,,,4.190000000000,   1.04800,
,,,4.200000000000,   1.07000,
,,,4.210000000000,   1.03400,
,,,4.220000000000,   1.05800,
,,,4.230000000000,   1.04800,
,,,4.240000000000,   1.02800,
,,,4.250000000000,   1.07600,
,,,4.260000000000,   1.02400,
,,,4.270000000000,   1.11400,
,,,4.280000000000,   1.13200,
,,,4.290000000000,   1.12800,
,,,4.300000000000,   1.17200,
,,,4.310000000000,   1.03800,
,,,4.320000000000,   1.05000,
,,,4.330000000000,   1.06600,
,,,4.340000000000,   1.05200,
,,,4.350000000000,   1.08600,
,,,4.360000000000,   1.02600,
,,,4.370000000000,   1.06000,
,,,4.380000000000,   1.06800,
,,,4.390000000000,   1.04000,
,,,4.400000000000,   1.06400,
,,,4.410000000000,   1.02200,
,,,4.420000000000,   1.04600,
,,,4.430000000000,   1.05600,
,,,4.440000000000,   1.04800,
,,,4.450000000000,   1.06200,
,,,4.460000000000,   1.02600,
,,,4.470000000000,   1.04400,
,,,4.480000000000,   1.05800,
,,,4.490000000000,   1.02200,
,,,4.500000000000,   1.04200,
,,,4.510000000000,   1.02400,
,,,4.520000000000,   1.03200,
,,,4.530000000000,   1.05600,
,,,4.540000000000,   1.01600,
,,,4.550000000000,   1.04000,
,,,4.560000000000,   1.02800,
,,,4.570000000000,   1.04600,
,,,4.580000000000,   1.06200,
,,,4.590000000000,   1.02400,
,,,4.600000000000,   1.05200,
,,,4.610000000000,   1.03800,
,,,4.620000000000,   1.03000,
,,,4.630000000000,   1.06200,
,,,4.640000000000,   1.02400,
,,,4.650000000000,   1.03800,
,,,4.660000000000,   1.03200,
,,,4.670000000000,   1.04200,
,,,4.680000000000,   1.05400,
,,,4.690000000000,   1.01800,
,,,4.700000000000,   1.02600,
,,,4.710000000000,   1.02400,
,,,4.720000000000,   1.04000,
,,,4.730000000000,   1.17400,
,,,4.740000000000,   1.12800,
,,,4.750000000000,   1.13600,
,,,4.760000000000,   1.07600,
,,,4.770000000000,   1.08200,
,,,4.780000000000,   1.16800,
,,,4.790000000000,   1.11400,
,,,4.800000000000,   1.13000,
,,,4.810000000000,   1.08200,
,,,4.820000000000,   1.09600,
,,,4.830000000000,   1.13600,
,,,4.840000000000,   1.10400,
,,,4.850000000000,   1.05400,
,,,4.860000000000,   1.07600,
,,,4.870000000000,   1.09800,
,,,4.880000000000,   1.12000,
,,,4.890000000000,   1.09400,
,,,4.900000000000,   1.12400,
,,,4.910000000000,   1.03200,
,,,4.920000000000,   1.05200,
,,,4.930000000000,   1.05200,
,,,4.940000000000,   1.03400,
,,,4.950000000000,   1.04400,
,,,4.960000000000,   1.07000,
,,,4.970000000000,   1.09600,
,,,4.980000000000,   1.15200,
,,,4.990000000000,   1.10400,
,,,5.000000000000,   1.12200,
,,,5.010000000000,   1.04600,
,,,5.020000000000,   1.12000,
,,,5.030000000000,   1.14200,
,,,5.040000000000,   1.09600,
,,,5.050000000000,   1.13000,
,,,5.060000000000,   1.04600,
,,,5.070000000000,   1.07400,
,,,5.080000000000,   1.04800,
,,,5.090000000000,   1.01800,
,,,5.100000000000,   1.04200,
,,,5.110000000000,   1.01400,
,,,5.120000000000,   1.07800,
,,,5.130000000000,   1.06400,
,,,5.140000000000,   1.01200,
,,,5.150000000000,   1.03000,
,,,5.160000000000,   1.01800,
,,,5.170000000000,   1.03200,
,,,5.180000000000,   1.05000,
,,,5.190000000000,   1.06600,
,,,5.200000000000,   1.10400,
,,,5.210000000000,   1.04400,
,,,5.220000000000,   1.03200,
,,,5.230000000000,   1.03600,
,,,5.240000000000,   1.02200,
,,,5.250000000000,   1.02200,
,,,5.260000000000,   1.04200,
,,,5.270000000000,   1.07800,
,,,5.280000000000,   1.15000,
,,,5.290000000000,   1.08600,
,,,5.300000000000,   1.13600,
,,,5.310000000000,   1.05800,
,,,5.320000000000,   1.07000,
,,,5.330000000000,   1.13400,
,,,5.340000000000,   1.11400,
,,,5.350000000000,   1.13200,
,,,5.360000000000,   1.05800,
,,,5.370000000000,   1.05200,
,,,5.380000000000,   1.04800,
,,,5.390000000000,   1.03000,
,,,5.400000000000,   1.02800,
,,,5.410000000000,   1.01800,
,,,5.420000000000,   1.02400,
,,,5.430000000000,   1.04400,
,,,5.440000000000,   1.02400,
,,,5.450000000000,   1.02400,
,,,5.460000000000,   1.01800,
,,,5.470000000000,   1.04800,
,,,5.480000000000,   1.11200,
,,,5.490000000000,   1.01800,
,,,5.500000000000,   1.01800,
,,,5.510000000000,   1.01200,
,,,5.520000000000,   1.07200,
,,,5.530000000000,   1.04000,
,,,5.540000000000,   1.07200,
,,,5.550000000000,   1.09800,
,,,5.560000000000,   1.02800,
,,,5.570000000000,   1.07000,
,,,5.580000000000,   1.11800,
,,,5.590000000000,   1.07000,
,,,5.600000000000,   1.11200,
,,,5.610000000000,   1.04200,
,,,5.620000000000,   1.06600,
,,,5.630000000000,   1.10000,
,,,5.640000000000,   1.07200,
,,,5.650000000000,   1.09000,
,,,5.660000000000,   1.03000,
,,,5.670000000000,   1.03000,
,,,5.680000000000,   1.04200,
,,,5.690000000000,   1.00800,
,,,5.700000000000,   1.03200,
,,,5.710000000000,   1.00600,
,,,5.720000000000,   1.02200,
,,,5.730000000000,   1.04000,
,,,5.740000000000,   1.00800,
,,,5.750000000000,   1.02000,
,,,5.760000000000,   1.01400,
,,,5.770000000000,   1.02400,
,,,5.780000000000,   1.03600,
,,,5.790000000000,   1.01200,
,,,5.800000000000,   1.00800,
,,,5.810000000000,   1.02200,
,,,5.820000000000,   1.02200,
,,,5.830000000000,   1.03600,
,,,5.840000000000,   1.00800,
,,,5.850000000000,   1.01200,
,,,5.860000000000,   1.01400,
,,,5.870000000000,   1.01400,
,,,5.880000000000,   1.03000,
,,,5.890000000000,   1.00400,
,,,5.900000000000,   1.01400,
,,,5.910000000000,   1.01600,
,,,5.920000000000,   1.00800,
,,,5.930000000000,   1.02600,
,,,5.940000000000,   1.03400,
,,,5.950000000000,   1.02000,
,,,5.960000000000,   1.04200,
,,,5.970000000000,   1.02000,
,,,5.980000000000,   1.08600,
,,,5.990000000000,   1.06800,
,,,6.000000000000,   1.04200,
,,,6.010000000000,   1.03600,
,,,6.020000000000,   1.05200,
,,,6.030000000000,   1.05000,
,,,6.040000000000,   1.01800,
,,,6.050000000000,   1.06800,
,,,6.060000000000,   1.04400,
,,,6.070000000000,   1.05600,
,,,6.080000000000,   1.07400,
,,,6.090000000000,   1.04000,
,,,6.100000000000,   1.00600,
,,,6.110000000000,   1.01000,
,,,6.120000000000,   1.02000,
,,,6.130000000000,   1.02600,
,,,6.140000000000,   1.01000,
,,,6.150000000000,   1.01000,
,,,6.160000000000,   1.03600,
,,,6.170000000000,   1.05800,
,,,6.180000000000,   1.06400,
,,,6.190000000000,   1.04600,
,,,6.200000000000,   1.05200,
,,,6.210000000000,   1.02800,
,,,6.220000000000,   1.05600,
,,,6.230000000000,   1.06400,
,,,6.240000000000,   1.01400,
,,,6.250000000000,   1.07000,
,,,6.260000000000,   1.02400,
,,,6.270000000000,   1.04600,
,,,6.280000000000,   1.06800,
,,,6.290000000000,   1.04000,
,,,6.300000000000,   1.05600,
,,,6.310000000000,   1.01400,
,,,6.320000000000,   1.05600,
,,,6.330000000000,   1.07400,
,,,6.340000000000,   0.99600,
,,,6.350000000000,   1.01800,
,,,6.360000000000,   1.02000,
,,,6.370000000000,   1.02000,
,,,6.380000000000,   1.07800,
,,,6.390000000000,   1.04800,
,,,6.400000000000,   1.00400,
,,,6.410000000000,   1.01400,
,,,6.420000000000,   1.01200,
,,,6.430000000000,   1.02000,
,,,6.440000000000,   0.99800,
,,,6.450000000000,   1.00800,
,,,6.460000000000,   1.01200,
,,,6.470000000000,   1.01600,
,,,6.480000000000,   1.02800,
,,,6.490000000000,   0.99800,
,,,6.500000000000,   1.00600,
,,,6.510000000000,   1.01600,
,,,6.520000000000,   1.00800,
,,,6.530000000000,   1.06600,
